{
  "rasa_nlu_data": {
    "common_examples": [
      {
        "text": "Da bei der AVG viele bei der EBO-Prüfung durchfallen, bekommt man bei der DB eine zweite Chance oder eine andere Stelle bei Scheitern in der Prüfung?",
        "intent": "gescheiterte_prüfung",
        "entities": []
      }
    ]
  }
}