{
  "rasa_nlu_data": {
    "common_examples": [
      {
        "text": "Was ist das für eine Musik die bei der Kampagne in den Videos war?",
        "intent": "musik_kampagne",
        "entities": []
      },
      {
        "text": "Die Musik aus den Videos von ist echt cool, woher kommt die?",
        "intent": "musik_kampagne",
        "entities": []
      }
    ]
  }
}